INDEX VERSION 1.129+/home/vagrant/workspace/.metadata/.plugins/org.eclipse.jdt.core
1913109094.index
1932949083.index
2982035129.index
2224590781.index
2066489604.index
3885805113.index
3721837726.index
2771403403.index
3879552797.index
3214207201.index
2841451250.index
2233963263.index
1458205243.index
742522455.index
3888198363.index
3066238821.index
699795634.index
2105639775.index
1686735229.index
4120300782.index
46282419.index
120211678.index
648035162.index
2630498905.index
527624335.index
3570708597.index
